Trabalho1: Mineração De Dados
…
b) Média do preço do ft² x Mês 

Na primeira tabela podemos observar os preços médios do ft² para cada ID único e na segunda tabela os preços médios do ft² para todas as casas ao longo dos meses. O gráfico mostra a distribuição gráfica dos valores da segunda tabela. Podemos perceber que os preços apresentam poucas mudanças na maioria dos meses. Há uma mudança mais significativa após fevereiro de 2015, o que faz sentido dado que sabemos que nesse mesmo período houve um aumento nos valores totais das casas pelo gráfico anterior.

#Resumo do preço médio do sqft^2 para cada ID
house_id <- house %>% 
    group_by(id,sqft_living) %>%
    summarize(summary_price = mean(price)) %>%
    summarize(preco_medio_sqft = summary_price/sqft_living)
house_id

## # A tibble: 21,436 x 2
##    id         preco_medio_sqft
##    <chr>                 <dbl>
##  1 1000102                121.
##  2 100100050              208.
##  3 1001200035             202.
##  4 1001200050             206.
##  5 1003000175             226.
##  6 100300280              248.
##  7 100300500              219.
##  8 100300530              217.
##  9 1003400155             212.
## 10 1003400245             159.
## # ... with 21,426 more rows
…
